module git.sussexdirectories.com/sussex/phi-reporter

go 1.18

require (
	github.com/aws/aws-lambda-go v1.34.1
	github.com/sirupsen/logrus v1.9.0
	github.com/xanzy/go-gitlab v0.73.1
)

require (
	github.com/golang/protobuf v1.5.2 // indirect
	github.com/google/go-querystring v1.1.0 // indirect
	github.com/hashicorp/go-cleanhttp v0.5.2 // indirect
	github.com/hashicorp/go-retryablehttp v0.7.1 // indirect
	golang.org/x/net v0.0.0-20220909164309-bea034e7d591 // indirect
	golang.org/x/oauth2 v0.0.0-20220909003341-f21342109be1 // indirect
	golang.org/x/sys v0.0.0-20220728004956-3c1f35247d10 // indirect
	golang.org/x/time v0.0.0-20220722155302-e5dcc9cfc0b9 // indirect
	google.golang.org/appengine v1.6.7 // indirect
	google.golang.org/protobuf v1.28.1 // indirect
)
